\relax 
\@writefile{toc}{\contentsline {subsection}{\numberline {0.1}Hands-on session}{2}}
\gdef\minted@oldcachelist{,
  default-pyg-prefix.pygstyle,
  default.pygstyle,
  C07AA0E6468DF2CF76A4E8B74C74B58BB063F238FF392D56702936B855DACA1C.pygtex}
