\relax 
\@writefile{toc}{\contentsline {subsection}{\numberline {0.1}Hands-on session}{2}}
\@writefile{toc}{\contentsline {subsection}{\numberline {0.2}Homework}{7}}
\gdef\minted@oldcachelist{,
  default-pyg-prefix.pygstyle,
  default.pygstyle,
  61453BE3062A09BD0FF41028AA46E882F12A2DF8BC8EE7A2D8DEE80143366762.pygtex,
  805F8145BA894F727C186400FEF25D22F12A2DF8BC8EE7A2D8DEE80143366762.pygtex,
  DF27E3208A0A219F3098CA3A99FC0997F12A2DF8BC8EE7A2D8DEE80143366762.pygtex}
