\relax 
\@writefile{toc}{\contentsline {subsection}{\numberline {0.1}Hands-on session}{2}}
\@writefile{toc}{\contentsline {subsection}{\numberline {0.2}Homework}{10}}
\gdef\minted@oldcachelist{,
  default-pyg-prefix.pygstyle,
  default.pygstyle,
  B205BBAC96F5BAE5374B07F838639BDE380052335A3B3C398D8DC372E90D7B4D.pygtex,
  A89CFBBEAAC2A6177EB87875472745BD380052335A3B3C398D8DC372E90D7B4D.pygtex,
  A35143D76B52F37656EEC755933D5635380052335A3B3C398D8DC372E90D7B4D.pygtex,
  F9BB456B94B41632F7A2C79E692E13D1380052335A3B3C398D8DC372E90D7B4D.pygtex,
  01E1871BB0B8DF9727927ECE83C87FD6380052335A3B3C398D8DC372E90D7B4D.pygtex,
  C22E56CFBAA3BA11FCD56B0F82089A33380052335A3B3C398D8DC372E90D7B4D.pygtex,
  32FF1EBFD7900EBCBB456415E5AABD5E380052335A3B3C398D8DC372E90D7B4D.pygtex}
