\relax 
\@writefile{toc}{\contentsline {subsection}{\numberline {0.1}Hands-on session}{2}}
\@writefile{toc}{\contentsline {subsection}{\numberline {0.2}Homework}{7}}
\gdef\minted@oldcachelist{,
  default-pyg-prefix.pygstyle,
  default.pygstyle,
  45B43B5AD6A7E9F51B8C75638A9CE14BF6223A3C69B0C4EFDC17D7EA5149BCF2.pygtex}
