\relax 
\@writefile{toc}{\contentsline {subsection}{\numberline {0.1}Hands-on session}{2}}
\gdef\minted@oldcachelist{,
  default-pyg-prefix.pygstyle,
  default.pygstyle,
  4226F0677ECEBFB784AF20A0C5A57D4B8EE148F001E36FBA06670E0342BCF6A8.pygtex}
\@writefile{toc}{\contentsline {subsection}{\numberline {0.2}Homework}{4}}
